Assign
…
## `summarise()` has grouped output by 'INCIDENT_DAY'. You can override using the
## `.groups` argument.

df$INC_HOUR <- substr(df$INCIDENT_TIME, 0, 2)

df   %>% 
  #filter(LOCATION_CITY == "Dallas", LOCATION_STATE == "TX") %>%
  group_by(INC_HOUR) %>%
  summarize(avg =n()) -> df_hour_n

df_year

## # A tibble: 354 x 4
## # Groups:   INCIDENT_DATE, INCIDENT_MONTH [354]
##    INCIDENT_DATE INCIDENT_MONTH INCIDENT_DAY count
##    <date>        <chr>          <ord>        <int>
##  1 2016-01-01    January        Fri              8
##  2 2016-01-02    January        Sat              5
##  3 2016-01-03    January        Sun              5
##  4 2016-01-04    January        Mon              4
##  5 2016-01-05    January        Tue              7
##  6 2016-01-06    January        Wed              4
##  7 2016-01-07    January        Thu              4
##  8 2016-01-08    January        Fri             15
##  9 2016-01-09    January        Sat             11
## 10 2016-01-10    January        Sun             10
## # ... with 344 more rows
…
